57303.0
86222.57016
30947.30389
18916.0
17512.0
73229.53323
3134.45023
213025.0
61184.0
372646.56754
60495.61001
351892.0
55927.0
285602.824
47103.0
232417.7877
64298.3219
69603.0
3603.0
180041.39992
57312.24155
773558.0
9736.0
111272.18406
61760.6334
137902.0
42151.0
40931.11532
57458.44039
185224.0
26469.0
146488.21595
33069.60237
780261.0
62610.36272
401783.0
57501.0
453351.6338
21125.57661
215395.0
644266.0
18137.0
90967.62472
9524.41084
157529.0
44532.0
64035.41799
25012.59556
33509.0
454901.11385
62098.7702
480083.0
37119.0
253558.53908
44672.6894
22578.0
20409.0
29023.33508
58842.33348
682493.0
54289.0
446453.10089
15103.20983
527619.0
60330.0
4291.22438
20478.42925
544380.0
60003.0
70931.3026
42291.34256
673095.0
